{
    "name":"EEP1 on solar cell",
    "root_file":"C:/Users/edin.omerovic/Desktop/Measurements/ATP_tests/jls_experimetn1",
    "stats_filename":"jls2202.csv",
    "device_parameters":{
       "io_voltage":"3.3V",
       "buffer_duration":2,
       "current_lsb":"gpi0",
       "voltage_lsb":"gpi1",
       "source":"on",
       "i_range":"auto",
       "v_range":"",
       "turn_of_after_capture":false
    }
 }